{
    "0.0.0": {
        "info": {
            "author": "Indicina Engineering",
            "author_email": "",
            "bugtrack_url": null,
            "classifiers": [
                "Programming Language :: Python :: 3"
            ],
            "description_content_type": "text/markdown",
            "docs_url": null,
            "download_url": "",
            "downloads": {
                "last_day": -1,
                "last_month": -1,
                "last_week": -1
            },
            "home_page": "",
            "keywords": "",
            "license": "",
            "maintainer": "",
            "maintainer_email": "",
            "name": "indicina-decide",
            "package_url": "https://pypi.org/project/indicina-decide/",
            "platform": null,
            "project_url": "https://pypi.org/project/indicina-decide/",
            "project_urls": null,
            "release_url": "https://pypi.org/project/indicina-decide/0.0.0/",
            "requires_dist": [
                "requests (==2.28.1)",
                "pre-commit (==2.20.0) ; extra == 'dev'"
            ],
            "requires_python": "",
            "summary": "",
            "version": "0.0.0",
            "yanked": false,
            "yanked_reason": null
        },
        "last_serial": 15816004,
        "urls": [
            {
                "comment_text": "",
                "digests": {
                    "md5": "4d1482feb35338afb0484af6f228253f",
                    "sha256": "8b881a73000bf8dd491648a31ef286e6de91369cae20e9d16e7e19ae6dbf2c16"
                },
                "downloads": -1,
                "filename": "indicina_decide-0.0.0-py3-none-any.whl",
                "has_sig": false,
                "md5_digest": "4d1482feb35338afb0484af6f228253f",
                "packagetype": "bdist_wheel",
                "python_version": "py3",
                "requires_python": null,
                "size": 15880,
                "upload_time": "2022-11-18T09:08:00",
                "upload_time_iso_8601": "2022-11-18T09:08:00.867478Z",
                "url": "https://files.pythonhosted.org/packages/90/b6/5ea77b4828a92d52b5b374522b14190faf8d52952dbed26577469c81cf67/indicina_decide-0.0.0-py3-none-any.whl",
                "yanked": false,
                "yanked_reason": null
            }
        ],
        "vulnerabilities": []
    },
    "0.1": {
        "info": {
            "author": "Indicina Engineering",
            "author_email": "",
            "bugtrack_url": null,
            "classifiers": [
                "Programming Language :: Python :: 3"
            ],
            "description_content_type": "text/markdown",
            "docs_url": null,
            "download_url": "",
            "downloads": {
                "last_day": -1,
                "last_month": -1,
                "last_week": -1
            },
            "home_page": "",
            "keywords": "",
            "license": "",
            "maintainer": "",
            "maintainer_email": "",
            "name": "indicina-decide",
            "package_url": "https://pypi.org/project/indicina-decide/",
            "platform": null,
            "project_url": "https://pypi.org/project/indicina-decide/",
            "project_urls": null,
            "release_url": "https://pypi.org/project/indicina-decide/0.1/",
            "requires_dist": [
                "requests (==2.28.1)"
            ],
            "requires_python": "",
            "summary": "",
            "version": "0.1",
            "yanked": true,
            "yanked_reason": null
        },
        "last_serial": 15816004,
        "urls": [
            {
                "comment_text": "",
                "digests": {
                    "md5": "7035571d1f4119b67676daf2c30321eb",
                    "sha256": "b0b8d9cb533f75c534d60ee6553b080fb57662722a60466da8cc140ad78fc50f"
                },
                "downloads": -1,
                "filename": "indicina_decide-0.1-py3-none-any.whl",
                "has_sig": false,
                "md5_digest": "7035571d1f4119b67676daf2c30321eb",
                "packagetype": "bdist_wheel",
                "python_version": "py3",
                "requires_python": null,
                "size": 14670,
                "upload_time": "2022-11-18T02:54:10",
                "upload_time_iso_8601": "2022-11-18T02:54:10.493898Z",
                "url": "https://files.pythonhosted.org/packages/c8/a2/00c5f7877653a07aaf0781d6a2485f677f4c6d7fa68c7124841b44007f20/indicina_decide-0.1-py3-none-any.whl",
                "yanked": true,
                "yanked_reason": null
            }
        ],
        "vulnerabilities": []
    },
    "0.2.0": {
        "info": {
            "author": "Indicina Engineering",
            "author_email": "",
            "bugtrack_url": null,
            "classifiers": [
                "Programming Language :: Python :: 3"
            ],
            "description": "## decide-python-package\n---\n[![PyPI version](https://badge.fury.io/py/indicina-decide.svg)](https://badge.fury.io/py/indicina-decide)\n\n**Table of contents**\n- [About](#about)\n- [Setup Project](#setup-project)\n- [Contribute to Project](#contribute-to-project)\n- [Issues](#issues)\n- [Using the App](#app-usuage)\n    - [Installation](#installation)\n    - [Authorization](#authorization)\n    - [Sample Code](#sample-code)\n    - [Sample Response](#sample-response)\n\n\n# About \nDecide helps users make risk-free decisions based on an analysis of their banking transactions using extracted financial data. \nThe Decide SDK helps developers plug into the functionalities of Decide from their python projects. \n\n# Using the App\n### Installation \nIn your python project use the command `pip install indicina-decide` to install the Decide SDK\n\n### Authorization \n#### sh\n```\nexport INDICINA_CLIENT_ID=my_id\nexport INDICINA_CLIENT_SECRET=my_secret\n```\n#### Python \n```\nimport os\n\nos.environ[\"INDICINA_CLIENT_ID\"] = \"my_id\"\nos.environ[\"INDICINA_CLIENT_SECRET\"] = \"my_secret\"\n```\n\nYou can get your `INDICINA_CLIENT_ID` and `INDICINA_CLIENT_SECRET` from [GitHub Pages](https://developers.indicina.co/docs/decide-api-keys).\n\n### Sample Code\n#### JSON STATEMENT \n```\nfrom decide.models.analysis import Analysis \nfrom decide.models.customer import Customer\nfrom decide.models.statement import JSONStatement\nimport json\n\nstatement = json.loads(\"\"\"{\n    \"paging\": {\n        \"total\": 190,\n        \"page\": 2,\n        \"previous\": \"https://api.withmono.com/accounts/:id/transactions?page=2\",\n        \"next\": \"https://api.withmono.com/accounts/:id/transactions?page=3\"\n    },\n    \"data\": [\n        {\n            \"_id\": \"12345\",\n            \"amount\": 10000,\n            \"date\": \"2020-07-21T00:00:00.000Z\",\n            \"narration\": \"TRANSFER from *************\",\n            \"type\": \"debit\",\n            \"category\": \"E-CHANNELS\"\n        },\n        {\n            \"_id\": \"12345\",\n            \"amount\": 20000,\n            \"date\": \"2020-07-21T00:00:00.000Z\",\n            \"narration\": \"TRANSFER from ***********\",\n            \"type\": \"debit\",\n            \"category\": \"E-CHANNELS\"\n        }\n    ]\n}\"\"\")\n\nstatement = JSONStatement(statement_format=StatementFormat.MBS, statement=json_statement, customer=customer)\nanalyis: Analysis = statement.analyze()\n\nprint(analysis)\nprint(f\"Analysis status is: {analysis.status}\")\n\n```\n\n#### PDF Statement\n\n```\nfrom decide import PDFStatement\nfrom decide.models.analysis import Analysis \n...\nstatement = PDFStatement(customer=customer, \n                         pdf_path=\"statement.pdf\",\n                         bank=Bank.ACCESS,\n                         currency=Currency.NGN)\n\nanalyis: Analysis = statement.analyze()\n\nprint(analysis)\nprint(f\"Analysis status is: {analysis.status}\")\n                         \n```\n\n#### CSV Statement \n```\nfrom decide import CSVStatement\nfrom decide.models.analysis import Analysis \n\n...\nstatement = CSVStatement(csv_path=\"AverageOtherIncome.csv\",\n                         customer=customer)\nanalyis: Analysis = statement.analyze()\n```\n\n#### Sample Response\n```\n{\n    \"status\": \"success\",\n    \"data\": {\n        \"country\": \"Nigeria\",\n        \"currency\": \"NGN\",\n        \"behaviouralAnalysis\": {\n            \"accountSweep\": \"No\",\n            \"gamblingRate\": 0,\n            \"inflowOutflowRate\": \"Neutral Cash Flow\",\n            \"loanAmount\": 2000,\n            \"loanInflowRate\": 0,\n            \"loanRepaymentInflowRate\": 0,\n            \"loanRepayments\": 54500,\n            \"topIncomingTransferAccount\": \"The\",\n            \"topTransferRecipientAccount\": \"Day\"\n        },\n        \"cashFlowAnalysis\": {\n            \"accountActivity\": 0.84,\n            \"averageBalance\": 1815942.46,\n            \"averageCredits\": 153741.4861589404,\n            \"averageDebits\": 31563.282248447216,\n            \"closingBalance\": -202978.97,\n            \"firstDay\": \"2022-05-18\",\n            \"lastDay\": \"2022-10-18\",\n            \"monthPeriod\": \"May - October\",\n            \"netAverageMonthlyEarnings\": -1875144.8599999999,\n            \"noOfTransactingMonths\": 6,\n            \"totalCreditTurnover\": 23214964.409999996,\n            \"totalDebitTurnover\": 25408442.21000001,\n            \"yearInStatement\": \"2022\",\n            \"maxEmiEligibility\": 48871,\n            \"emiConfidenceScore\": 0.04\n        },\n        \"incomeAnalysis\": {\n            \"salaryEarner\": \"Yes\",\n            \"medianIncome\": 83150,\n            \"averageOtherIncome\": 69187.43,\n            \"expectedSalaryDay\": 25,\n            \"lastSalaryDate\": \"2022-08-25\",\n            \"averageSalary\": 2290408.08,\n            \"confidenceIntervalonSalaryDetection\": 1,\n            \"salaryFrequency\": \"1\",\n            \"numberSalaryPayments\": 3,\n            \"numberOtherIncomePayments\": 15,\n            \"gigWorker\": \"No\"\n        },\n        \"spendAnalysis\": {\n            \"averageRecurringExpense\": 360140.42,\n            \"hasRecurringExpense\": \"Yes\",\n            \"averageMonthlyExpenses\": 4234740.37,\n            \"expenseChannels\": `expenseChannels`,(bills, entertainment,savingsAndInvestments,gambling,airtime,bankCharges,chequeWithdrawal,cashWithdrawal,shopping, eatingOut)\n            \"expenseCategories\": `expenseCategories`\n        },\n        \"transactionPatternAnalysis\": {\n            \"MAWWZeroBalanceInAccount\": {\n                \"month\": null,\n                \"week_of_month\": 0\n            },\n            \"NODWBalanceLess5000\": 35,\n            \"NODWBalanceLess\": {\n                \"amount\": 5000,\n                \"count\": 35\n            },\n            \"highestMAWOCredit\": {\n                \"month\": \"August\",\n                \"week_of_month\": 3\n            },\n            \"highestMAWODebit\": {\n                \"month\": \"August\",\n                \"week_of_month\": 5\n            },\n            \"lastDateOfCredit\": \"2022-10-17\",\n            \"lastDateOfDebit\": \"2022-10-18\",\n            \"mostFrequentBalanceRange\": \">500000\",\n            \"mostFrequentTransactionRange\": \"<10000\",\n            \"recurringExpense\": [\n                {\n                    \"amount\": 1650,\n                    \"description\": \"spend and save\"\n                },\n                {\n                    \"amount\": 4000,\n                    \"description\": \"airtime purchase 2347049215992\"\n                },\n                {\n                    \"amount\": 5000,\n                    \"description\": \"fuel\"\n                }\n            ],\n            \"transactionsBetween100000And500000\": 39,\n            \"transactionsBetween10000And100000\": 176,\n            \"transactionsGreater500000\": 24,\n            \"transactionsLess10000\": 717,\n            \"transactionRanges\": [\n                {\n                    \"min\": 10000,\n                    \"max\": 100000,\n                    \"count\": 176\n                },\n                {\n                    \"min\": 100000,\n                    \"max\": 500000,\n                    \"count\": 39\n                },\n                {\n                    \"min\": null,\n                    \"max\": 10000,\n                    \"count\": 717\n                },\n                {\n                    \"min\": 500000,\n                    \"max\": null,\n                    \"count\": 24\n                }\n            ]\n        }\n    }\n}\n\n```\n\n# Contribution\n## Setup Project\nThe link for this projects's repository can be found [here](decide-python.git)\n### Cloning the project \n\n##### For HTTPS\nUse this command `git clone https://github.com/indicina-dev/decide-python.git`\n\n##### For SSH\nUse this command `git clone git@github.com:indicina-dev/decide-python.git`\n\n#### Running the project \n- Create virtual enviroment \n- Install the requirements.txt file `pip install -r requirements.txt`\n- Run files\n\n## Contribute to Project \nDo you find the project interesting and you would like to contribute to our project?\n- Fork the repository to your github account\n- Clone the repository to your local machine \n- Create a new branch for your fix (preferably descriptive to your contribution)\n- Make appropriate changes and tests for the changes\n- Use `git add insert-paths-of-changed-files-here` to add the file contents of the changed files to the \"snapshot\" git uses for project management\n- Use `git commit -m \"Insert a short message of the changes made here\"` to store the contents of the index with a descriptive message.\n- Push the changes to the remote repository using `git push origin branch-name-here`\n- Submit a pull request to the upstream repository\n- Title the pull request with a short description of the changes made and the issue or bug number associated with your change. For example, you can title an issue like so `Added more log outputting to resolve #4352`.\n- Wait for our in-house developers to approve the merge requests or update the merge requests if changes were requested, \n\n## Issues\nTo create an issue, simply click on the issues tab on the menu and create a new issue. \n\n\n\n\n",
            "description_content_type": "text/markdown",
            "docs_url": null,
            "download_url": "",
            "downloads": {
                "last_day": -1,
                "last_month": -1,
                "last_week": -1
            },
            "home_page": "",
            "keywords": "",
            "license": "",
            "maintainer": "",
            "maintainer_email": "",
            "name": "indicina-decide",
            "package_url": "https://pypi.org/project/indicina-decide/",
            "platform": null,
            "project_url": "https://pypi.org/project/indicina-decide/",
            "project_urls": null,
            "release_url": "https://pypi.org/project/indicina-decide/0.2.0/",
            "requires_dist": [
                "requests (==2.28.1)"
            ],
            "requires_python": "",
            "summary": "",
            "version": "0.2.0",
            "yanked": false,
            "yanked_reason": null
        },
        "last_serial": 15816004,
        "urls": [
            {
                "comment_text": "",
                "digests": {
                    "md5": "eef69ccad9cbbdda894140742c93e8ee",
                    "sha256": "5b51c596090d3020c7a955a90f1e877d68e342bceb168e6533903de20fe248bc"
                },
                "downloads": -1,
                "filename": "indicina_decide-0.2.0-py3-none-any.whl",
                "has_sig": false,
                "md5_digest": "eef69ccad9cbbdda894140742c93e8ee",
                "packagetype": "bdist_wheel",
                "python_version": "py3",
                "requires_python": null,
                "size": 14680,
                "upload_time": "2022-11-18T03:33:34",
                "upload_time_iso_8601": "2022-11-18T03:33:34.002242Z",
                "url": "https://files.pythonhosted.org/packages/5d/83/e6ea5d5f79cff0a6fc5dd91b2c7c1e890fd7ee63f6f8574ac66eb5884702/indicina_decide-0.2.0-py3-none-any.whl",
                "yanked": false,
                "yanked_reason": null
            }
        ],
        "vulnerabilities": []
    }
}